Lab 11
…
Initial Comments:

I found that due to an increase of Ariel names after the release of The Little Mermaid, I found an opposing trend with the name, Jasmine. The movie, Aladdin, was released just three short years after The Little Mermaid. In the graphs shown above, we can clearly see that there was a fluctuating deecrease in babies with the name Jasmine starting after the early 1990s becuase as we approach the 2000s, the name Jasmine was becoming less frequently used. There was however, a spike in the 30 year gap before the movies release and I would argue that it was due to the publishing of the original book, Aladdin. Once the movie had been released, there was an increase in commonality and led to a decrease in number of babies being named Jasmine.

## # A tibble: 449,474 x 9
##     year num_Jasmine2 total2   total sex   name        n   prop percentile1
##    <dbl>        <int>  <int>   <int> <chr> <chr>   <int>  <dbl>       <dbl>
##  1  1981         1439 138000 3459182 F     Jennif~ 57049 0.0319       0.222
##  2  1981         1439 138000 3459182 F     Jessica 42532 0.0238       0.222
##  3  1981         1439 138000 3459182 F     Amanda  34374 0.0192       0.222
##  4  1981         1439 138000 3459182 F     Sarah   28173 0.0158       0.222
##  5  1981         1439 138000 3459182 F     Melissa 28000 0.0157       0.222
##  6  1981         1439 138000 3459182 F     Amy     20343 0.0114       0.222
##  7  1981         1439 138000 3459182 F     Nicole  20313 0.0114       0.222
##  8  1981         1439 138000 3459182 F     Stepha~ 20210 0.0113       0.222
##  9  1981         1439 138000 3459182 F     Elizab~ 20171 0.0113       0.222
## 10  1981         1439 138000 3459182 F     Heather 17946 0.0100       0.222
## # ... with 449,464 more rows

## # A tibble: 620,475 x 9
##     year num_Jasmine1 total1   total sex   name       n    prop percentile2
##    <dbl>        <int>  <int>   <int> <chr> <chr>  <int>   <dbl>       <dbl>
##  1  1999         9371 110620 3692537 F     Emily  26539 0.0136        0.166
##  2  1999         9371 110620 3692537 F     Hannah 21673 0.0111        0.166
##  3  1999         9371 110620 3692537 F     Alexis 19234 0.00988       0.166
##  4  1999         9371 110620 3692537 F     Sarah  19102 0.00982       0.166
##  5  1999         9371 110620 3692537 F     Saman~ 19036 0.00978       0.166
##  6  1999         9371 110620 3692537 F     Ashley 18136 0.00932       0.166
##  7  1999         9371 110620 3692537 F     Madis~ 18053 0.00928       0.166
##  8  1999         9371 110620 3692537 F     Taylor 16905 0.00869       0.166
##  9  1999         9371 110620 3692537 F     Jessi~ 16348 0.00840       0.166
## 10  1999         9371 110620 3692537 F     Eliza~ 15341 0.00788       0.166
## # ... with 620,465 more rows
…
